<svg width="25" height="24" viewBox="0 0 25 24" fill="none" xmlns="http://www.w3.org/2000/svg">
<path d="M21.125 20H3.125V5" stroke="#00B5FF" stroke-width="1.5" stroke-linecap="round" stroke-linejoin="round"/>
<path d="M21.125 7L13.125 14L9.125 10L3.125 15" stroke="#00B5FF" stroke-width="1.5" stroke-linecap="round" stroke-linejoin="round"/>
</svg>
