<svg width="32" height="32" viewBox="0 0 32 32" fill="none" xmlns="http://www.w3.org/2000/svg">
<path d="M27.9999 27.9999L4 4" stroke="white" stroke-linecap="round" stroke-linejoin="round"/>
<path d="M28.0001 4L4 28.0001" stroke="white" stroke-linecap="round" stroke-linejoin="round"/>
</svg>
