<svg width="32" height="32" viewBox="0 0 32 32" fill="none" xmlns="http://www.w3.org/2000/svg">
<path d="M16.0364 0H15.9636C7.14712 0 0 7.14713 0 15.9636V16.0364C0 24.8529 7.14712 32 15.9636 32H16.0364C24.8529 32 32 24.8529 32 16.0364V15.9636C32 7.14713 24.8529 0 16.0364 0Z" fill="white" fill-opacity="0.1"/>
<path d="M22.9614 9.61383C21.6808 9.02612 20.3085 8.59337 18.8728 8.34581C18.8465 8.34094 18.8202 8.35264 18.8075 8.377C18.6311 8.69084 18.4352 9.10116 18.2987 9.4228C16.7549 9.1918 15.2189 9.1918 13.7062 9.4228C13.5688 9.09337 13.3661 8.69084 13.1887 8.377C13.175 8.35361 13.1487 8.34192 13.1234 8.34581C11.6887 8.59337 10.3154 9.02612 9.03475 9.61383C9.02403 9.6187 9.01428 9.6265 9.00746 9.63722C6.40321 13.528 5.68975 17.3233 6.03964 21.0717C6.04159 21.0903 6.05134 21.1078 6.06596 21.1185C7.78426 22.3807 9.44897 23.1468 11.0825 23.6546C11.1088 23.6624 11.1361 23.6526 11.1526 23.6312C11.5386 23.1039 11.8836 22.5474 12.179 21.9616C12.1965 21.9275 12.1789 21.8865 12.1439 21.8729C11.5971 21.6653 11.0776 21.4129 10.5766 21.1263C10.5367 21.1029 10.5338 21.0464 10.5698 21.0191C10.6751 20.9402 10.7803 20.8583 10.8807 20.7755C10.8992 20.7599 10.9246 20.7569 10.946 20.7667C14.2335 22.2676 17.7929 22.2676 21.0414 20.7667C21.0628 20.756 21.0882 20.7599 21.1067 20.7745C21.2071 20.8573 21.3123 20.9402 21.4186 21.0191C21.4546 21.0464 21.4527 21.1029 21.4127 21.1263C20.9127 21.4187 20.3923 21.6663 19.8445 21.8729C19.8085 21.8865 19.7929 21.9275 19.8104 21.9626C20.1125 22.5464 20.4566 23.1029 20.8357 23.6312C20.8513 23.6536 20.8796 23.6633 20.9059 23.6555C22.5472 23.1477 24.2119 22.3817 25.9302 21.1195C25.9448 21.1088 25.9546 21.0912 25.9565 21.0737C26.3756 16.7404 25.2548 12.9764 22.9868 9.63917C22.9809 9.62845 22.9722 9.61968 22.9605 9.6148L22.9614 9.61383ZM12.6682 18.7891C11.678 18.7891 10.8632 17.8808 10.8632 16.7648C10.8632 15.6488 11.6633 14.7405 12.6682 14.7405C13.6731 14.7405 14.4898 15.6576 14.4732 16.7648C14.4732 17.8808 13.6731 18.7891 12.6682 18.7891ZM19.3435 18.7891C18.3533 18.7891 17.5385 17.8808 17.5385 16.7648C17.5385 15.6488 18.3387 14.7405 19.3435 14.7405C20.3484 14.7405 21.1652 15.6576 21.1486 16.7648C21.1486 17.8808 20.3572 18.7891 19.3435 18.7891Z" fill="white"/>
</svg>
