<svg width="32" height="32" viewBox="0 0 32 32" fill="none" xmlns="http://www.w3.org/2000/svg">
<path d="M16.0364 0H15.9636C7.14712 0 0 7.14713 0 15.9636V16.0364C0 24.8529 7.14712 32 15.9636 32H16.0364C24.8529 32 32 24.8529 32 16.0364V15.9636C32 7.14713 24.8529 0 16.0364 0Z" fill="white" fill-opacity="0.1"/>
<path d="M7.048 15.5307C7.08805 15.5107 7.12813 15.4917 7.16719 15.4737C7.84618 15.1592 8.53418 14.8648 9.22118 14.5704C9.25823 14.5704 9.3203 14.5273 9.35536 14.5133C9.40843 14.4902 9.46152 14.4682 9.5146 14.4452C9.61674 14.4011 9.7189 14.358 9.82004 14.314C10.0243 14.2269 10.2276 14.1397 10.4319 14.0526L11.6547 13.5288C12.4699 13.1803 13.2861 12.8308 14.1013 12.4823C14.9165 12.1338 15.7326 11.7843 16.5478 11.4358C17.363 11.0873 18.1792 10.7378 18.9944 10.3893C19.8096 10.0408 20.6258 9.69126 21.4409 9.34275C21.6222 9.26464 21.8185 9.14847 22.0128 9.11442C22.176 9.08538 22.3352 9.0293 22.4995 8.99825C22.8109 8.93917 23.1544 8.91513 23.4529 9.04432C23.556 9.08939 23.6511 9.15248 23.7303 9.23159C24.1088 9.60614 24.0557 10.221 23.9756 10.7478C23.4178 14.4191 22.86 18.0915 22.3012 21.7628C22.2251 22.2665 22.1209 22.8193 21.7233 23.1378C21.3868 23.4072 20.9081 23.4372 20.4925 23.3231C20.0769 23.2079 19.7104 22.9666 19.3509 22.7292C17.8597 21.7418 16.3676 20.7543 14.8764 19.7669C14.5219 19.5326 14.1273 19.2261 14.1313 18.8005C14.1333 18.5441 14.2865 18.3158 14.4428 18.1125C15.7386 16.422 17.6084 15.2604 18.9994 13.648C19.1957 13.4207 19.3499 13.0101 19.0805 12.8789C18.9203 12.8008 18.736 12.9069 18.5898 13.0081C16.7511 14.2849 14.9135 15.5628 13.0748 16.8396C12.4749 17.2563 11.846 17.6849 11.1229 17.787C10.476 17.8792 9.82506 17.6989 9.19915 17.5146C8.67438 17.3604 8.1506 17.2022 7.62885 17.0389C7.35144 16.9528 7.06502 16.8597 6.85071 16.6644C6.6364 16.4691 6.51324 16.1406 6.64243 15.8803C6.72354 15.717 6.88078 15.6139 7.04602 15.5297L7.048 15.5307Z" fill="#FEFFFC"/>
</svg>
